{
        "マニュアル": {
                "name": "マニュアル",
                "hex": "#5d8aa8",
                "rgb": [93, 138, 168]
        },
        "シフト確認": {
                "name": "シフト確認",
                "hex": "#ffbf00",
                "rgb": [255, 191, 0]
        },
        "SNS": {
                "name": "アンケート",
                "hex": "#ff7e00",
                "rgb": [255, 126, 0]
        },
        "ショッピング": {
                "name": "ショッピング",
                "hex": "#96c",
                "rgb": [153, 102, 204]
        },
        "スペシャルサンクス": {
                "name": "スペシャルサンクス",
                "hex": "#a4c639",
                "rgb": [164, 198, 57]
        },
        "リンクス": {
                "name": "リンクス",
                "hex": "#f2f3f4",
                "rgb": [242, 243, 244]
        }

}